…
```r
Boston %>% 
  lm(medv ~ lstat, .) %>% 
  augment()
```

```
## # A tibble: 506 x 9
##     medv lstat .fitted .se.fit  .resid    .hat .sigma   .cooksd .std.resid
##  * <dbl> <dbl>   <dbl>   <dbl>   <dbl>   <dbl>  <dbl>     <dbl>      <dbl>
##  1  24    4.98   29.8    0.406  -5.82  0.00426   6.22   1.89e-3    -0.939 
##  2  21.6  9.14   25.9    0.308  -4.27  0.00246   6.22   5.82e-4    -0.688 
##  3  34.7  4.03   30.7    0.433   3.97  0.00486   6.22   1.00e-3     0.641 
##  4  33.4  2.94   31.8    0.467   1.64  0.00564   6.22   1.98e-4     0.264 
##  5  36.2  5.33   29.5    0.396   6.71  0.00406   6.21   2.38e-3     1.08  
##  6  28.7  5.21   29.6    0.399  -0.904 0.00413   6.22   4.40e-5    -0.146 
##  7  22.9 12.4    22.7    0.276   0.155 0.00198   6.22   6.20e-7     0.0250
##  8  27.1 19.2    16.4    0.374  10.7   0.00362   6.20   5.44e-3     1.73  
##  9  16.5 29.9     6.12   0.724  10.4   0.0136    6.20   1.94e-2     1.68  
## 10  18.9 17.1    18.3    0.326   0.592 0.00274   6.22   1.25e-5     0.0954
## # ... with 496 more rows
```
…
```
##        fit     lwr      upr
## 1 24.46708 14.8094 34.12476
```

```r
tibble(horsepower = 98) %>% 
  augment(cars_lm, data = .)
```

```
## # A tibble: 392 x 8
##    horsepower .fitted .se.fit .resid    .hat .sigma    .cooksd .std.resid
##  *      <dbl>   <dbl>   <dbl>  <dbl>   <dbl>  <dbl>      <dbl>      <dbl>
##  1         98   19.4    0.297 -1.42  0.00368   4.91 0.000154      -0.289 
##  2         98   13.9    0.462  1.11  0.00888   4.91 0.000231       0.227 
##  3         98   16.3    0.384  1.74  0.00613   4.91 0.000391       0.356 
##  4         98   16.3    0.384 -0.259 0.00613   4.91 0.00000866    -0.0530
##  5         98   17.8    0.337 -0.838 0.00473   4.91 0.0000696     -0.171 
##  6         98    8.68   0.652  6.32  0.0177    4.90 0.0152         1.30  
##  7         98    5.21   0.785  8.79  0.0256    4.89 0.0433         1.82  
##  8         98    6.00   0.754  8.00  0.0236    4.89 0.0330         1.65  
##  9         98    4.42   0.815  9.58  0.0276    4.89 0.0557         1.98  
## 10         98    9.95   0.604  5.05  0.0152    4.91 0.00831        1.04  
## # ... with 382 more rows
```
…
